-8 976
-8 -16 952
-8 16 -24 920
-24 16 -8 -24 -40 -40 792
-32 8 -24 -32 864
992
-160 -160 -160 488
992
-8 -16 -24 -32 -40 -48 -56 -64 -72 -80 -88 -96 272
104 -40 832
120 -208 8 -184 440
56 -80 840
88 -24 16 -32 40 -48 696
992
-32 -16 -32 -16 -32 -16 -32 -16 -32 -16 -32 -16 -32 568
-8 -16 -24 -32 -40 -48 -56 -64 -72 -80 472
-80 -72 -64 -56 -48 -40 -32 -24 -16 -8 472
176 -32 40 -8 704
200 -32 -104 48 -8 560
160 -8 8 -8 24 -8 728
-160 -240 -320 248
992
